71777C4B3A,160501013700,07,19,NA,NP,NP,NP,39H,291K9,NK,NK,2V74,1V38,FA,FE,EF,FC,06,58,41
71777C4B3A,160501013700,07,22,NA,302634p,NP,1P,59H,286K4,NK,NK,3V08,3V07,EA,11,EF,FC,06,69,40
71777C4B3A,160501013626,09,01,NA,P,Np,Np,Np,NP,1P,45T47,Nt,41T21,288K5,NK,279K3,NK,33Z2,3V17,FF
71777C4B3A,160501013730,07,20,NA,NP,NP,NP,37H,291K8,NK,NK,2V71,2V70,E6,FD,EF,FC,06,44,40
