71777C4B3A,160430074300,07,22,NA,288738P,NP,1P,64H,285K1,NK,NK,3V09,3V08,EC,01,EF,FC,06,87,40
71777C4B3A,160430075327,09,01,NA,P,Np,Np,Np,NP,1P,35T31,Nt,36T04,288K8,NK,283K7,NK,59Z8,3V17,FF
71777C4B3A,160430075330,06,04,NA,Np,Np,Np,p,37P,23p,1p,2392p,2387p,282K3,292K9,292K9,309K3,3V12,NA,N
