71777C4B3A,160407152000,06,04,NA,Np,Np,Np,p,35P,23p,1p,2360P,2355P,284K6,294K2,294K4,312K6,3V11,NA,N
71777C4B3A,160407151000,07,22,NA,104855P,NP,NP,73H,287K7,NK,NK,2V70,2V37,E8,09,EF,FC,06,7E,40
71777C4B3A,160407162051,09,01,NA,p,Np,Np,p,Np,NP,NP,NP,P,295K2,NK,NK,NK,122Z,3V13,FF
71777C4B3A,160407152030,07,18,NA,NP,NP,NP,43H,294K1,NK,NK,2V64,1V90,F0,01,EF,FC,06,41,40
71777C4B3A,160407152100,07,19,NA,NP,NP,NP,48H,294K2,NK,NK,2V74,1V42,F9,00,EF,FC,06,3B,41
